…
Note that the second row, which contains the original variable names, is
hidden in the output above. To read the file back in we can use the
`skip` argument of [`readxl::read_xlsx`](https://readxl.tidyverse.org/)
to get the original variable names instead of the human-readable
version.

``` r
readxl::read_xlsx(file.path(path_write, "mtcars_header.xlsx"), skip = 1)
```

    ## # A tibble: 32 x 14
    ##    model               mpg   cyl  disp    hp  drat    wt  qsec    vs    am  gear  carb drive color
    ##    <chr>             <dbl> <dbl> <dbl> <dbl> <dbl> <dbl> <dbl> <dbl> <dbl> <dbl> <dbl> <lgl> <lgl>
    ##  1 Mazda RX4          21       6  160    110  3.9   2.62  16.5     0     1     4     4 NA    NA   
    ##  2 Mazda RX4 Wag      21       6  160    110  3.9   2.88  17.0     0     1     4     4 NA    NA   
    ##  3 Datsun 710         22.8     4  108     93  3.85  2.32  18.6     1     1     4     1 NA    NA   
    ##  4 Hornet 4 Drive     21.4     6  258    110  3.08  3.22  19.4     1     0     3     1 NA    NA   
    ##  5 Hornet Sportabout  18.7     8  360    175  3.15  3.44  17.0     0     0     3     2 NA    NA   
    ##  6 Valiant            18.1     6  225    105  2.76  3.46  20.2     1     0     3     1 NA    NA   
    ##  7 Duster 360         14.3     8  360    245  3.21  3.57  15.8     0     0     3     4 NA    NA   
    ##  8 Merc 240D          24.4     4  147.    62  3.69  3.19  20       1     0     4     2 NA    NA   
    ##  9 Merc 230           22.8     4  141.    95  3.92  3.15  22.9     1     0     4     2 NA    NA   
    ## 10 Merc 280           19.2     6  168.   123  3.92  3.44  18.3     1     0     4     4 NA    NA   
    ## # … with 22 more rows
…
